{
  "project_info": {
    "project_number": "732844763615",
    "firebase_url": "https://tinybook-16ad7.firebaseio.com",
    "project_id": "tinybook-16ad7",
    "storage_bucket": "tinybook-16ad7.appspot.com"
  },
  "client": [
    {
      "client_info": {
        "mobilesdk_app_id": "1:732844763615:android:df22ebedafef81e5",
        "android_client_info": {
          "package_name": "com.example.myapp"
        }
      },
      "oauth_client": [
        {
          "client_id": "732844763615-6s55q4sfu2p6b69m6bfur4lqfkgt4pf7.apps.googleusercontent.com",
          "client_type": 1,
          "android_info": {
            "package_name": "com.example.myapp",
            "certificate_hash": "50d8b0bf0f4605b496b6728247d7c5d0fa172053"
          }
        },
        {
          "client_id": "732844763615-4albpqbjvlr3cppuvc0h247lf1oit05s.apps.googleusercontent.com",
          "client_type": 3
        }
      ],
      "api_key": [
        {
          "current_key": "AIzaSyDmdVEOsDT8WAn2TfOkBkPKYZ7xAH9-dCQ"
        }
      ],
      "services": {
        "appinvite_service": {
          "other_platform_oauth_client": [
            {
              "client_id": "732844763615-4albpqbjvlr3cppuvc0h247lf1oit05s.apps.googleusercontent.com",
              "client_type": 3
            }
          ]
        }
      }
    },
    {
      "client_info": {
        "mobilesdk_app_id": "1:732844763615:android:13c3c6a65bcbec53",
        "android_client_info": {
          "package_name": "com.example.myapplication"
        }
      },
      "oauth_client": [
        {
          "client_id": "732844763615-6tlp6e5d20jleetm1stjcqdb7fdms3sa.apps.googleusercontent.com",
          "client_type": 1,
          "android_info": {
            "package_name": "com.example.myapplication",
            "certificate_hash": "dd329a0e53af0b7168c232b38531f9a065cd1323"
          }
        },
        {
          "client_id": "732844763615-4albpqbjvlr3cppuvc0h247lf1oit05s.apps.googleusercontent.com",
          "client_type": 3
        }
      ],
      "api_key": [
        {
          "current_key": "AIzaSyDmdVEOsDT8WAn2TfOkBkPKYZ7xAH9-dCQ"
        }
      ],
      "services": {
        "appinvite_service": {
          "other_platform_oauth_client": [
            {
              "client_id": "732844763615-4albpqbjvlr3cppuvc0h247lf1oit05s.apps.googleusercontent.com",
              "client_type": 3
            }
          ]
        }
      }
    }
  ],
  "configuration_version": "1"
}